0000  time = 180 ns
0001  time = 510 ns
0010  time = 810 ns
0011  time = 990 ns
0100  time = 1170 ns
0101  time = 1350 ns
0110  time = 1530 ns
0111  time = 1860 ns
1000  time = 2280 ns
1001  time = 2730 ns
1010  time = 3180 ns
1011  time = 3630 ns
1100  time = 3990 ns
1101  time = 4170 ns
1110  time = 4650 ns
1111  time = 5190 ns
