0000  time = 180 ns
0001  time = 360 ns
0010  time = 390 ns
0011  time = 420 ns
0100  time = 450 ns
0101  time = 480 ns
0110  time = 510 ns
0111  time = 690 ns
1000  time = 840 ns
1001  time = 1140 ns
1010  time = 1230 ns
1011  time = 1470 ns
1100  time = 1500 ns
1101  time = 1530 ns
1110  time = 1860 ns
1111  time = 2100 ns
