0000  time = 264 ns
0001  time = 704 ns
0010  time = 880 ns
0011  time = 1078 ns
0100  time = 1254 ns
0101  time = 1430 ns
0110  time = 1606 ns
0111  time = 2046 ns
1000  time = 2354 ns
1001  time = 3014 ns
1010  time = 3300 ns
1011  time = 3872 ns
1100  time = 4070 ns
1101  time = 4246 ns
1110  time = 4884 ns
1111  time = 5478 ns
