0000  time = 180 ns
0001  time = 390 ns
0010  time = 450 ns
0011  time = 510 ns
0100  time = 570 ns
0101  time = 630 ns
0110  time = 690 ns
0111  time = 900 ns
1000  time = 1080 ns
1001  time = 1410 ns
1010  time = 1530 ns
1011  time = 1800 ns
1100  time = 1860 ns
1101  time = 1920 ns
1110  time = 2280 ns
1111  time = 2550 ns
