0000  time = 180 ns
0001  time = 390 ns
0010  time = 450 ns
0011  time = 690 ns
0100  time = 750 ns
0101  time = 870 ns
0110  time = 930 ns
0111  time = 1200 ns
1000  time = 1380 ns
1001  time = 1770 ns
1010  time = 1890 ns
1011  time = 2370 ns
1100  time = 2430 ns
1101  time = 2700 ns
1110  time = 3060 ns
1111  time = 3330 ns
