0000  time = 264 ns
0001  time = 572 ns
0010  time = 616 ns
0011  time = 770 ns
0100  time = 836 ns
0101  time = 946 ns
0110  time = 1012 ns
0111  time = 1386 ns
1000  time = 1452 ns
1001  time = 2046 ns
1010  time = 2134 ns
1011  time = 2596 ns
1100  time = 2640 ns
1101  time = 2772 ns
1110  time = 3300 ns
1111  time = 3630 ns
