0000  time = 264 ns
0001  time = 572 ns
0010  time = 616 ns
0011  time = 660 ns
0100  time = 704 ns
0101  time = 748 ns
0110  time = 792 ns
0111  time = 1078 ns
1000  time = 1166 ns
1001  time = 1694 ns
1010  time = 1782 ns
1011  time = 2024 ns
1100  time = 2068 ns
1101  time = 2112 ns
1110  time = 2508 ns
1111  time = 2838 ns
