0000  time = 180 ns
0001  time = 600 ns
0010  time = 990 ns
0011  time = 1260 ns
0100  time = 1500 ns
0101  time = 1770 ns
0110  time = 2010 ns
0111  time = 2400 ns
1000  time = 2910 ns
1001  time = 3420 ns
1010  time = 3960 ns
1011  time = 4500 ns
1100  time = 4890 ns
1101  time = 5130 ns
1110  time = 5700 ns
1111  time = 6330 ns
