0000  time = 264 ns
0001  time = 572 ns
0010  time = 616 ns
0011  time = 748 ns
0100  time = 792 ns
0101  time = 880 ns
0110  time = 946 ns
0111  time = 1232 ns
1000  time = 1298 ns
1001  time = 1826 ns
1010  time = 1914 ns
1011  time = 2178 ns
1100  time = 2222 ns
1101  time = 2332 ns
1110  time = 2816 ns
1111  time = 3146 ns
